[
  {
		"id": "ftc.en",
		"lang": "en",
		"url": "https://www.consumer.ftc.gov/articles/how-recognize-and-avoid-phishing-scams#recognize",
		"domain": "consumer.ftc.gov",
		"imgsrc": "ftc-preview.png",
		"imgalt": "Federal Trade Commission",
		"title": "How To Recognize and Avoid Phishing Scams",
		"description": "Scammers use email or text messages to trick you into giving them your personal information. But there are several things you can do to protect yourself."
	},

	{
		"id": "berkeley.en",
		"lang": "en",
		"url": "https://security.berkeley.edu/faq/phishing",
		"domain": "security.berkeley.edu",
		"imgsrc": "berkeley.png",
		"imgalt": "Berkeley University's logo",
		"title": "Frequently Asked Questions about Phishing",
		"description": "Berkeley University answers the most important questions about phishing."
	},

	{
		"id": "berkeley.de",
		"original": "berkeley.en.html",
		"lang": "en",
		"url": "https://security.berkeley.edu/faq/phishing",
		"domain": "security.berkeley.edu",
		"imgsrc": "berkeley.png",
		"imgalt": "Berkeley-Uni-Logo",
		"title": "Häufig gestellte Fragen über Phishing",
		"description": "Die Berkeley-Universität beantwortet die wichtigsten Fragen zu Phishing-Angriffen."
	},

	{
		"id": "bsi.de",
		"lang": "de",
		"url": "https://www.bsi.bund.de/DE/Themen/Verbraucherinnen-und-Verbraucher/Cyber-Sicherheitslage/Methoden-der-Cyber-Kriminalitaet/Spam-Phishing-Co/Passwortdiebstahl-durch-Phishing/Wie-erkenne-ich-Phishing-in-E-Mails-und-auf-Webseiten/wie-erkenne-ich-phishing-in-e-mails-und-auf-webseiten_node.html",
		"domain": "bsi.bund.de",
		"imgsrc": "bsi.png",
		"imgalt": "BSI",
		"title": "Wie erkenne ich Phishing-E-Mails und -Webseiten?",
		"description": "Das Bundesamt für Sicherheit in der Informationstechnik erklärt in einem anschaulichen Video, wie Phishing funktioniert und woran man es erkennt."
	},

	{
		"id": "kuketz.de",
		"lang": "de",
		"url": "https://www.kuketz-blog.de/phishing-das-abfischen-von-zugangsdaten-vermeiden/",
		"domain": "kuketz-blog.de",
		"imgsrc": "kuketz-preview.png",
		"imgalt": "Kuketz-Blog-Logo",
		"title": "Phishing: Das Abfischen von Zugangsdaten vermeiden",
		"description": "Sicherheits- und IT-Experte Mike Kuketz erklärt, wie Phishing technisch funktioniert und wie man sich dagegen schützen kann."
	},

	{
		"id": "mobilsicher.de",
		"lang": "de",
		"url": "https://mobilsicher.de/ratgeber/dauerbrenner-phishing",
		"domain": "mobilsicher.de",
		"imgsrc": "mobilsicher-preview.png",
		"imgalt": "Mobilsicher-Logo",
		"title": "Dauerbrenner Phishing: So schützen Sie sich",
		"description": "Phishing ist eine altbekannte Methode, die immer wieder in neuem Gewand auftaucht. Wie Sie Phishing-Maschen erkennen und wie Sie am besten damit umgehen, erklären wir hier."
	},

	{
		"id": "ncsc.en",
		"lang": "en",
		"url": "https://www.ncsc.gov.uk/guidance/suspicious-email-actions",
		"domain": "ncsc.gov.uk",
		"imgsrc": "ncsc.png",
		"imgalt": "NCSC's Logo",
		"title": "Dealing with suspicious emails, phone calls and text messages",
		"description": "How to spot the most obvious signs of a scam, and what to do if you've already responded."
	},

	{
		"id": "ncsc.de",
		"lang": "en",
		"url": "https://www.ncsc.gov.uk/guidance/suspicious-email-actions",
		"domain": "ncsc.gov.uk",
		"imgsrc": "ncsc.png",
		"imgalt": "NCSC-Logo",
		"title": "Mit verdächtigen, E-Mails, Anrufen und Chatnachrichten umgehen",
		"description": "Wie man die offensichtlichsten Anzeichen eines Betrugs erkennt und was man machen soll, wenn man bereits geantwortet hat."
	},

	{
		"id": "vbz.de",
		"lang": "de",
		"url": "https://www.verbraucherzentrale.de/wissen/digitale-welt/phishingradar/phishingradar-aktuelle-warnungen-6059",
		"domain": "verbraucherzentrale.de",
		"imgsrc": "phishing-vr.png",
		"imgalt": "Screenshot einer Phishing-Mail",
		"title": "Beispiele für Phishing-Versuche",
		"description": "Die Verbraucherschutzzentrale zeigt eine Liste kürzlicher Phishing-Versuche, die du dir unbedingt ansehen solltest."
	},

	{
		"id": "vbz.en",
		"lang": "de",
		"url": "https://www.verbraucherzentrale.de/wissen/digitale-welt/phishingradar/phishingradar-aktuelle-warnungen-6059",
		"domain": "verbraucherzentrale.de",
		"imgsrc": "phishing-vr.png",
		"imgalt": "German example screenshot of phishing mail",
		"title": "German examples for phishing attempts",
		"description": "The German Consumer Protection Agency has a list of recent phishing attempts that you should definitly check out."
	}
]
