<?xml version="1.0" encoding="UTF-8" standalone="no"?>
<svg
   viewBox="0 0 1440 320"
   version="1.1"
   id="svg4"
   sodipodi:docname="wave.svg"
   inkscape:version="1.1 (c68e22c387, 2021-05-23)"
   inkscape:export-filename="C:\Users\Piczan\AppData\Local\Temp\wave.png"
   inkscape:export-xdpi="200"
   inkscape:export-ydpi="200"
   xmlns:inkscape="http://www.inkscape.org/namespaces/inkscape"
   xmlns:sodipodi="http://sodipodi.sourceforge.net/DTD/sodipodi-0.dtd"
   xmlns="http://www.w3.org/2000/svg"
   xmlns:svg="http://www.w3.org/2000/svg">
  <defs
     id="defs8" />
  <sodipodi:namedview
     id="namedview6"
     pagecolor="#ffffff"
     bordercolor="#eeeeee"
     borderopacity="1"
     inkscape:pageshadow="0"
     inkscape:pageopacity="0"
     inkscape:pagecheckerboard="0"
     showgrid="false"
     inkscape:zoom="0.68059028"
     inkscape:cx="797.83685"
     inkscape:cy="181.46013"
     inkscape:window-width="1920"
     inkscape:window-height="1001"
     inkscape:window-x="-9"
     inkscape:window-y="-9"
     inkscape:window-maximized="1"
     inkscape:current-layer="svg4" />
  <path
     fill="#0099ff"
     fill-opacity="1"
     d="m 0,135.13772 80,21.3 C 160,178.13772 320,213 480,208 c 160,-5 320,-59 480,-58.7 165.9828,0.93088 324.6772,27.84801 480,79.68701 v 13.13941 H 1360 960 480 80 0 Z"
     id="path2"
     sodipodi:nodetypes="ccsccccccccc"
     inkscape:export-filename="F:\Backup G-13\Privat\Archiv\Software\pixelcode\PhishWarn\img\wave.png"
     inkscape:export-xdpi="200"
     inkscape:export-ydpi="200"
     style="fill:#02659f;fill-opacity:1" />
</svg>
