<?xml version="1.0" encoding="UTF-8" standalone="no"?>
<!-- Created with Inkscape (http://www.inkscape.org/) -->

<svg
   version="1.1"
   width="600"
   height="525"
   id="svg3069"
   sodipodi:docname="PhishWarn.svg"
   inkscape:version="1.1 (c68e22c387, 2021-05-23)"
   xmlns:inkscape="http://www.inkscape.org/namespaces/inkscape"
   xmlns:sodipodi="http://sodipodi.sourceforge.net/DTD/sodipodi-0.dtd"
   xmlns="http://www.w3.org/2000/svg"
   xmlns:svg="http://www.w3.org/2000/svg"
   xmlns:rdf="http://www.w3.org/1999/02/22-rdf-syntax-ns#"
   xmlns:cc="http://creativecommons.org/ns#"
   xmlns:dc="http://purl.org/dc/elements/1.1/">
  <sodipodi:namedview
     id="namedview10"
     pagecolor="#ffffff"
     bordercolor="#eeeeee"
     borderopacity="1"
     inkscape:pageshadow="0"
     inkscape:pageopacity="0"
     inkscape:pagecheckerboard="0"
     showgrid="false"
     inkscape:zoom="0.71714286"
     inkscape:cx="37.649402"
     inkscape:cy="389.74104"
     inkscape:window-width="1920"
     inkscape:window-height="1001"
     inkscape:window-x="-9"
     inkscape:window-y="-9"
     inkscape:window-maximized="1"
     inkscape:current-layer="layer4" />
  <metadata
     id="metadata3085">
    <rdf:RDF>
      <cc:Work
         rdf:about="">
        <dc:format>image/svg+xml</dc:format>
        <dc:type
           rdf:resource="http://purl.org/dc/dcmitype/StillImage" />
      </cc:Work>
    </rdf:RDF>
  </metadata>
  <defs
     id="defs3073">
    <path
       d="M 2.8117,-1.046 A 3,3 0 0 1 0.5,2.958 V 4.5119 A 10.5,10.5 0 0 1 2,25.3078 v 0.5583 A 15,15 0 0 0 14.7975,8.5433 15,15 0 0 0 23.4007,-11.201 l -0.4835,0.2792 A 10.5,10.5 0 0 1 4.1574,-1.8229 z m 3.4148,8.871 a 10,10 0 0 1 -12.453,0 9.5,9.5 0 0 0 -2.1756,2.7417 13.5,13.5 0 0 0 16.8042,0 A 10,10 0 0 0 6.2265,7.825 z"
       transform="matrix(10,0,0,-10,260,260)"
       id="p" />
  </defs>
  <g
     inkscape:groupmode="layer"
     id="layer3"
     inkscape:label="Layer 1" />
  <g
     inkscape:groupmode="layer"
     id="layer4"
     inkscape:label="Layer 2">
    <g
       id="g13948"
       inkscape:export-filename="F:\Backup G-13\Privat\Archiv\Software\pixelcode\Codeberg Pages\img\PhishWarn.png"
       inkscape:export-xdpi="240.10004"
       inkscape:export-ydpi="240.10004">
      <path
         d="M 597.6,499.6 313.8,8 C 310.9,3 305.6,0 299.9,0 294.2,0 288.9,3.1 286,8 L 2.2,499.6 c -2.9,5 -2.9,11.1 0,16 2.9,5 8.2,8 13.9,8 h 567.6 c 5.7,0 11,-3.1 13.9,-8 2.9,-5 2.9,-11.1 0,-16 z"
         id="sign_border" />
      <polygon
         points="43.875,491.5 299.875,48.2 555.875,491.5 "
         transform="matrix(1,0,0,0.99591458,0.125,2.0332437)"
         id="polygon7"
         style="fill:#f6bd16;fill-opacity:1;stroke:none;overflow:visible" />
      <g
         id="g12116"
         transform="matrix(1.1462379,0,0,1.1462379,25.969978,-99.112767)">
        <g
           id="g12202"
           transform="matrix(1.0491277,0,0,1.0491277,-5.5488169,-23.233036)">
          <g
             id="g12916"
             transform="matrix(1.0906016,0,0,1.0906016,-19.868592,-30.30201)">
            <path
               d="m 272.87792,286.10038 a 28.199929,28.177753 0 1 1 -56.39984,0 28.199929,28.177753 0 1 1 56.39984,0 z"
               id="path1995-5"
               style="fill:#000000;fill-opacity:1;stroke:#000000;stroke-width:0.47447;stroke-linecap:square;stroke-miterlimit:4;stroke-dasharray:none;stroke-dashoffset:0;stroke-opacity:1" />
            <g
               transform="matrix(56.517676,0,0,-56.517676,238.77206,284.05092)"
               id="g20"
               style="stroke:#000000;stroke-width:0.181107;stroke-miterlimit:4;stroke-dasharray:none;stroke-opacity:1">
              <path
                 d="M -1.0616148e-6,-0.60545802 -5.3080739e-7,-2.592 C -4.6240375e-7,-2.848 -0.204,-3.053 -0.46,-3.053 c -0.254,0 -0.459,0.205 -0.459,0.461 0,0.063 0.012,0.123 0.035,0.178 L -0.864,-2.43 -0.59231209,-2.460565 -0.804,-1.674 -1.067,-2.283 c -0.08,-0.188 -0.061,-0.309 -0.061,-0.309 0,-0.369 0.299,-0.67 0.668,-0.67 0.369,0 0.66899859,0.301 0.66899775,0.67 l -2.25e-6,1.98654198 H 0.10449722 Z"
                 fill="#231f20"
                 id="path18"
                 style="fill:#000000;fill-opacity:1;stroke:#000000;stroke-width:0.241476;stroke-miterlimit:4;stroke-dasharray:none;stroke-opacity:1"
                 sodipodi:nodetypes="csssccccccssccc" />
            </g>
            <path
               style="fill:#000000;fill-opacity:1;stroke:none;stroke-width:1.16454px;stroke-linecap:butt;stroke-linejoin:miter;stroke-opacity:1"
               d="m 238.772,318.27 h 11.812 v 14.7834 h -11.812 z"
               id="path9226"
               sodipodi:nodetypes="ccccc" />
          </g>
        </g>
      </g>
    </g>
  </g>
</svg>
